
*************************
TimeStamp: 4/2/2018 12:20:10 PM
Caching Storefront License Key
*************************


*************************
TimeStamp: 4/2/2018 1:05:06 PM
Caching Storefront License Key
*************************


*************************
TimeStamp: 4/2/2018 1:08:21 PM
Caching Storefront License Key
*************************


*************************
TimeStamp: 4/3/2018 7:40:47 PM
Caching Storefront License Key
*************************


*************************
TimeStamp: 4/3/2018 7:47:06 PM
Caching Storefront License Key
*************************


*************************
TimeStamp: 4/3/2018 8:04:52 PM
Error logging message to activity table in LogActivity. /nData1: Transaction Capture failed/nData2: /nData3: /nStatus: /nLongData: /nSource: /nTarget: 
*************************


*************************
TimeStamp: 4/3/2018 8:04:52 PM

*************************


*************************
TimeStamp: 4/3/2018 8:08:04 PM
Error logging message to activity table in LogActivity. /nData1: Transaction Capture failed/nData2: /nData3: /nStatus: /nLongData: /nSource: /nTarget: 
*************************


*************************
TimeStamp: 4/3/2018 8:08:04 PM

*************************


*************************
TimeStamp: 4/3/2018 8:11:22 PM
Error logging message to activity table in LogActivity. /nData1: Transaction Capture failed/nData2: /nData3: /nStatus: /nLongData: /nSource: /nTarget: 
*************************


*************************
TimeStamp: 4/3/2018 8:11:22 PM

*************************


*************************
TimeStamp: 4/4/2018 6:13:39 PM
Caching Storefront License Key
*************************


*************************
TimeStamp: 4/4/2018 6:25:36 PM
Error logging message to activity table in LogActivity. /nData1: The system cannot find the path specified.
/nData2: /nData3: /nStatus: /nLongData: /nSource: /nTarget: 
*************************


*************************
TimeStamp: 4/4/2018 6:25:36 PM
   at System.Security.Cryptography.CryptographicException.ThrowCryptographicException(Int32 hr)
   at System.Security.Cryptography.X509Certificates.X509Utils._QueryCertFileType(String fileName)
   at System.Security.Cryptography.X509Certificates.X509Certificate.LoadCertificateFromFile(String fileName, Object password, X509KeyStorageFlags keyStorageFlags)
   at System.Security.Cryptography.X509Certificates.X509Certificate2..ctor(String fileName, String password, X509KeyStorageFlags keyStorageFlags)
   at CyberSource.Clients.SoapClient.RunTransaction(Configuration config, RequestMessage requestMessage)
   at CyberSource.Clients.SoapClient.RunTransaction(RequestMessage requestMessage)
   at Znode.Multifront.PaymentApplication.Providers.CyberSourceCustomerProviderProvider.CreateCustomerPayment(PaymentModel paymentModel) in E:\Znode_9\Znode_9_0_0_Dev_Master\PaymentApp\Znode.Multifront.PaymentApplication\Znode.Multifront.PaymentApplication.Providers\CyberSourceCustomerProvider.cs:line 320
   at Znode.Multifront.PaymentApplication.Providers.CyberSourceCustomerProviderProvider.CreateCustomer(PaymentModel paymentModel) in E:\Znode_9\Znode_9_0_0_Dev_Master\PaymentApp\Znode.Multifront.PaymentApplication\Znode.Multifront.PaymentApplication.Providers\CyberSourceCustomerProvider.cs:line 242
   at Znode.Multifront.PaymentApplication.Providers.CyberSourceCustomerProviderProvider.ValidateCreditcard(PaymentModel paymentModel) in E:\Znode_9\Znode_9_0_0_Dev_Master\PaymentApp\Znode.Multifront.PaymentApplication\Znode.Multifront.PaymentApplication.Providers\CyberSourceCustomerProvider.cs:line 26
   at Znode.Multifront.PaymentApplication.Providers.GatewayConnector.ProcessCreditCard(PaymentModel paymentModel) in E:\Znode_9\Znode_9_0_0_Dev_Master\PaymentApp\Znode.Multifront.PaymentApplication\Znode.Multifront.PaymentApplication.Providers\GatewayConnector.cs:line 417
   at Znode.Multifront.PaymentApplication.Providers.GatewayConnector.GetCustomerResponse(PaymentModel paymentModel) in E:\Znode_9\Znode_9_0_0_Dev_Master\PaymentApp\Znode.Multifront.PaymentApplication\Znode.Multifront.PaymentApplication.Providers\GatewayConnector.cs:line 89
*************************


*************************
TimeStamp: 4/4/2018 6:25:36 PM
The system cannot find the path specified.

*************************


*************************
TimeStamp: 4/4/2018 6:32:08 PM
Caching Storefront License Key
*************************


*************************
TimeStamp: 4/4/2018 6:34:25 PM
Error logging message to activity table in LogActivity. /nData1: Transaction Captured/nData2: /nData3: /nStatus: /nLongData: /nSource: /nTarget: 
*************************


*************************
TimeStamp: 4/4/2018 7:14:48 PM
Error logging message to activity table in LogActivity. /nData1: Transaction Captured/nData2: /nData3: /nStatus: /nLongData: /nSource: /nTarget: 
*************************


*************************
TimeStamp: 4/5/2018 4:00:49 PM
Caching Storefront License Key
*************************


*************************
TimeStamp: 5/29/2018 6:50:48 PM
Caching Storefront License Key
*************************


*************************
TimeStamp: 5/30/2018 10:08:53 AM
Caching Storefront License Key
*************************


*************************
TimeStamp: 5/30/2018 10:44:08 AM
Error logging message to activity table in LogActivity. /nData1: Transaction Captured/nData2: /nData3: /nStatus: /nLongData: /nSource: /nTarget: 
*************************


*************************
TimeStamp: 5/30/2018 10:47:21 AM
Error logging message to activity table in LogActivity. /nData1: Refund transaction/nData2: /nData3: /nStatus: /nLongData: /nSource: /nTarget: 
*************************


*************************
TimeStamp: 6/7/2018 2:31:28 PM
Caching Storefront License Key
*************************


*************************
TimeStamp: 24-01-2019 16:04:42
Caching Storefront License Key
*************************


*************************
TimeStamp: 4/17/2019 12:25:25 PM
Caching Storefront License Key
*************************

